R Basics
…
	SP1        19/05/18   Sevilla    Alaves     1          0          H          1          0          H                    2.86       19         -1.25      1.97       1.91       2.00       1.94       1.32       6.09        9.47      

	SP1        19/05/18   Villarreal Real Madrid2          2          D          0          2          A                    3.79       19          0.25      2.05       1.98       1.93       1.87       4.74       5.05        1.62      

	SP1        20/05/18   Ath Bilbao Espanol    0          1          A          0          1          A                    2.06       17         -0.50      2.06       2.02       1.88       1.85       1.95       3.77        4.05      

	SP1        20/05/18   Ath Madrid Eibar      2          2          D          1          1          D                    1.98       19         -1.00      2.09       2.04       1.87       1.82       1.47       4.25        8.80      

	SP1        20/05/18   Barcelona  Sociedad   1          0          H          0          0          D                    5.04       19         -2.00      1.94       1.89       2.03       1.97       1.31       6.40        8.60      

	SP1        20/05/18   Valencia   La Coruna  2          1          H          1          0          H                    2.98       19         -1.50      2.01       1.97       1.94       1.89       1.27       6.44       10.71      

This is how it looks in R for example¶

# A tibble: 225,468 x 11
       X date       time        size r_version r_arch r_os      package      version country ip_id
                                           
 1     1 2014-07-08 00:54:41   80589 3.1.0     x86_64 mingw32   htmltools    0.2.4   US          1
 2     2 2014-07-08 00:59:53  321767 3.1.0     x86_64 mingw32   tseries      0.10-32 US          2
 3     3 2014-07-08 00:47:13  748063 3.1.0     x86_64 linux-gnu party        1.0-15  US          3
 4     4 2014-07-08 00:48:05  606104 3.1.0     x86_64 linux-gnu Hmisc        3.14-4  US          3
 5     5 2014-07-08 00:46:50   79825 3.0.2     x86_64 linux-gnu digest       0.6.4   CA          4
 6     6 2014-07-08 00:48:04   77681 3.1.0     x86_64 linux-gnu randomForest 4.6-7   US          3
 7     7 2014-07-08 00:48:35  393754 3.1.0     x86_64 linux-gnu plyr         1.8.1   US          3
 8     8 2014-07-08 00:47:30   28216 3.0.2     x86_64 linux-gnu whisker      0.3-2   US          5
 9     9 2014-07-08 00:54:58    5928 NA        NA     NA        Rcpp         0.10.4  CN          6
10    10 2014-07-08 00:15:35 2206029 3.0.2     x86_64 linux-gnu hflights     0.1     US          7
# ... with 225,458 more rows
…
